1 10 20
100 200 125
201 210 89
900 1000 174
200 300 128
300 400 144
400 500 142
500 600 137
600 700 145
800 900 179
142 501 144
192 126 125
693 382 145
419 429 103
978 836 179
707 983 179
290 176 128
359 916 179
966 145 179
627 698 145
764 494 171
846 575 171
170 917 179
445 817 171
691 122 145
19 292 128
27 102 119
39 200 125
128 832 171
491 373 142
472 938 179
391 726 171
238 489 144
349 974 179
945 629 179
574 723 171
382 173 144
593 73 144
712 638 171
837 812 135
918 81 179
473 873 179
12 372 144
348 532 142
235 573 144
294 726 171
623 274 144
736 873 179
742 918 179
127 374 144
392 625 142
827 692 171
438 489 142
493 382 142
736 736 21
187 890 179
23 43 112
76 29 116
1 89 116
30 90 116
84 48 116
100 300 128
300 600 144
900 321 179
389 453 134
293 366 144
231 289 128
389 400 121
1028 1000 156
2039 2000 157
4329 5000 215
4982 6125 236
9484 10982 268
8391 20981 279
1288 3781 238
7237 8916 252
7126 6818 257
2687 3089 217
281 237 123
128 661 145
848 726 153
742 863 153
918 474 179
327 476 144
837 847 86
126 837 171
373 343 126
87 233 128
172 901 179
82 243 128
37 23 112
74 703 171
77 731 171
36 679 145
8128 357 262
873 13 179
184 842 171
928 293 179
11992 20000 279
10092 38291 324
38827 48938 314
438 502 142
273 672 145
918 190 179
272 472 144
388 673 145
273 732 171
938 1092 169
337 421 134
556 283 144
100290 201820 383
209392 300021 443
493000 323891 449
901288 999999 507
1 2901 209
1 999999 525
278 127872 354
43787 378271 443
37686 16279 324
4738 2389 238
1 27893 308
8836 1 262
999999 783718 525
89372 47891 351
893839 367377 525
999999 98127 525
892879 999999 507
1 278732 443
63577 1 340
